Generalized Measurement Models: Modeling Observed Data
…
Examining Latent Variables

# A tibble: 177 × 10
   variable       mean    median    sd   mad     q5   q95  rhat ess_bulk ess_t…¹
   <chr>         <dbl>     <dbl> <dbl> <dbl>  <dbl> <dbl> <dbl>    <dbl>   <dbl>
 1 theta[1]  -0.00146  -0.00315  0.249 0.246 -0.408 0.403  1.00  4198.    4672. 
 2 theta[2]   0.00245  -0.122    1.55  2.25  -1.85  1.86   1.73     6.07    98.4
 3 theta[3]   0.00266  -0.00440  1.72  2.52  -2.04  2.05   1.74     6.06   117. 
 4 theta[4]   0.00206  -0.0296   0.959 1.37  -1.24  1.25   1.73     6.06   107. 
 5 theta[5]  -0.00233  -0.00457  0.250 0.251 -0.409 0.410  1.02   201.    4934. 
 6 theta[6]  -0.00499   0.0738   1.01  1.45  -1.30  1.29   1.73     6.08   124. 
 7 theta[7]   0.00155  -0.00312  0.423 0.502 -0.655 0.664  1.61     6.59   106. 
 8 theta[8]  -0.000405  0.000558 0.250 0.251 -0.409 0.407  1.03   108.    4176. 
 9 theta[9]  -0.00238  -0.00591  0.826 1.16  -1.11  1.11   1.73     6.06   104. 
10 theta[10]  0.000514 -0.00102  0.252 0.244 -0.411 0.412  1.02   238.    4244. 
# … with 167 more rows, and abbreviated variable name ¹​ess_tail
…
